<?xml version='1.0' encoding='UTF-8'?>
<kml xmlns = 'http://earth.google.com/kml/2.1'>
  <Folder>
	<name>SemanticSensorWeb</name>
	<description>Sensor Data from the Semantic WEB.<br/>
	See http://projects.hummel-universe.net/semanticsensorweb for more information.</description>
    <NetworkLink>
	  <name>METAR Networklink</name>
      <Link>
        <href><![CDATA[http://projects.hummel-universe.net/semanticsensorweb/basickml?config=noaa_metar_dbpedia&mode=createKml]]></href>
        <refreshMode>onInterval</refreshMode>
        <refreshInterval>300</refreshInterval>
      </Link>
    </NetworkLink>
	<NetworkLink>
	  <name>PIREP Networklink</name>
      <Link>
        <href><![CDATA[http://projects.hummel-universe.net/semanticsensorweb/basickml?config=noaa_pirep&mode=createKml]]></href>
        <refreshMode>onInterval</refreshMode>
        <refreshInterval>300</refreshInterval>
      </Link>
    </NetworkLink>
  </Folder>
</kml>